5.00000	2.00000	0.00000	6.44720	3.11340
5.00000	2.00000	0.05000	5.88640	2.51170
5.00000	2.00000	0.10000	5.37510	2.03600
5.00000	2.00000	0.15000	4.90970	1.65930
5.00000	2.00000	0.20000	4.49260	1.36860
5.00000	2.00000	0.25000	4.11410	1.13380
5.00000	2.00000	0.30000	3.76520	0.94530
5.00000	2.00000	0.35000	3.44890	0.79190
5.00000	2.00000	0.40000	3.16190	0.66800
5.00000	2.00000	0.45000	2.90090	0.56420
5.00000	2.00000	0.50000	2.66280	0.47920
5.00000	2.00000	0.55000	2.44500	0.40850
5.00000	2.00000	0.60000	2.24730	0.34930
5.00000	2.00000	0.65000	2.06600	0.29930
5.00000	2.00000	0.70000	1.90070	0.25680
5.00000	2.00000	0.75000	1.75010	0.22000
5.00000	3.00000	0.00000	2.87090	1.13040
5.00000	3.00000	0.05000	2.63650	0.84680
5.00000	3.00000	0.10000	2.42380	0.64650
5.00000	3.00000	0.15000	2.22910	0.49580
5.00000	3.00000	0.20000	2.05080	0.38340
5.00000	3.00000	0.25000	1.88780	0.29980
5.00000	3.00000	0.30000	1.73820	0.23480
5.00000	3.00000	0.35000	1.60110	0.18600
5.00000	3.00000	0.40000	1.47560	0.14860
5.00000	3.00000	0.45000	1.36070	0.12070
5.00000	3.00000	0.50000	1.25540	0.09850
5.00000	3.00000	0.55000	1.15820	0.08150
5.00000	3.00000	0.60000	1.06900	0.06790
5.00000	3.00000	0.65000	0.98700	0.05680
5.00000	3.00000	0.70000	0.91190	0.04820
5.00000	3.00000	0.75000	0.84260	0.04100
5.00000	4.00000	0.00000	1.58400	0.81830
5.00000	4.00000	0.05000	1.46330	0.61290
5.00000	4.00000	0.10000	1.35220	0.45680
5.00000	4.00000	0.15000	1.24940	0.34000
5.00000	4.00000	0.20000	1.15490	0.25460
5.00000	4.00000	0.25000	1.06780	0.19060
5.00000	4.00000	0.30000	0.98750	0.14220
5.00000	4.00000	0.35000	0.91360	0.10670
5.00000	4.00000	0.40000	0.84520	0.07970
5.00000	4.00000	0.45000	0.78230	0.06010
5.00000	4.00000	0.50000	0.72410	0.04490
5.00000	4.00000	0.55000	0.67030	0.03430
5.00000	4.00000	0.60000	0.62090	0.02600
5.00000	4.00000	0.65000	0.57520	0.02010
5.00000	4.00000	0.70000	0.53320	0.01550
5.00000	4.00000	0.75000	0.49440	0.01230
5.00000	5.00000	0.00000	0.99030	0.74360
5.00000	5.00000	0.05000	0.91890	0.56320
5.00000	5.00000	0.10000	0.85250	0.42800
5.00000	5.00000	0.15000	0.79080	0.32240
5.00000	5.00000	0.20000	0.73380	0.24410
5.00000	5.00000	0.25000	0.68110	0.18440
5.00000	5.00000	0.30000	0.63200	0.13880
5.00000	5.00000	0.35000	0.58640	0.10460
5.00000	5.00000	0.40000	0.54430	0.07880
5.00000	5.00000	0.45000	0.50530	0.05870
5.00000	5.00000	0.50000	0.46900	0.04400
5.00000	5.00000	0.55000	0.43550	0.03270
5.00000	5.00000	0.60000	0.40450	0.02450
5.00000	5.00000	0.65000	0.37570	0.01840
5.00000	5.00000	0.70000	0.34890	0.01340
5.00000	5.00000	0.75000	0.32430	0.01000
5.00000	6.00000	0.00000	0.67230	0.69650
5.00000	6.00000	0.05000	0.62590	0.53590
5.00000	6.00000	0.10000	0.58270	0.41160
5.00000	6.00000	0.15000	0.54230	0.31750
5.00000	6.00000	0.20000	0.50480	0.24500
5.00000	6.00000	0.25000	0.46980	0.18730
5.00000	6.00000	0.30000	0.43720	0.14310
5.00000	6.00000	0.35000	0.40680	0.10970
5.00000	6.00000	0.40000	0.37850	0.08430
5.00000	6.00000	0.45000	0.35220	0.06500
5.00000	6.00000	0.50000	0.32790	0.04940
5.00000	6.00000	0.55000	0.30510	0.03760
5.00000	6.00000	0.60000	0.28390	0.02850
5.00000	6.00000	0.65000	0.26420	0.02170
5.00000	6.00000	0.70000	0.24580	0.01660
5.00000	6.00000	0.75000	0.22880	0.01250
5.00000	7.00000	0.00000	0.48370	0.63770
5.00000	7.00000	0.05000	0.45170	0.49860
5.00000	7.00000	0.10000	0.42170	0.38700
5.00000	7.00000	0.15000	0.39360	0.30280
5.00000	7.00000	0.20000	0.36730	0.23600
5.00000	7.00000	0.25000	0.34260	0.18350
5.00000	7.00000	0.30000	0.31960	0.14320
5.00000	7.00000	0.35000	0.29800	0.11200
5.00000	7.00000	0.40000	0.27780	0.08710
5.00000	7.00000	0.45000	0.25910	0.06720
5.00000	7.00000	0.50000	0.24150	0.05270
5.00000	7.00000	0.55000	0.22510	0.04070
5.00000	7.00000	0.60000	0.20990	0.03140
5.00000	7.00000	0.65000	0.19560	0.02470
5.00000	7.00000	0.70000	0.18220	0.01910
5.00000	7.00000	0.75000	0.16980	0.01460
5.00000	8.00000	0.00000	0.36370	0.57710
5.00000	8.00000	0.05000	0.34050	0.45450
5.00000	8.00000	0.10000	0.31860	0.35830
5.00000	8.00000	0.15000	0.29800	0.28080
5.00000	8.00000	0.20000	0.27870	0.22210
5.00000	8.00000	0.25000	0.26040	0.17490
5.00000	8.00000	0.30000	0.24350	0.13750
5.00000	8.00000	0.35000	0.22740	0.10840
5.00000	8.00000	0.40000	0.21240	0.08520
5.00000	8.00000	0.45000	0.19820	0.06730
5.00000	8.00000	0.50000	0.18500	0.05310
5.00000	8.00000	0.55000	0.17280	0.04180
5.00000	8.00000	0.60000	0.16120	0.03290
5.00000	8.00000	0.65000	0.15040	0.02590
5.00000	8.00000	0.70000	0.14040	0.02030
5.00000	8.00000	0.75000	0.13110	0.01590
5.00000	9.00000	0.00000	0.28310	0.51220
5.00000	9.00000	0.05000	0.26550	0.40780
5.00000	9.00000	0.10000	0.24890	0.32280
5.00000	9.00000	0.15000	0.23330	0.25520
5.00000	9.00000	0.20000	0.21850	0.20320
5.00000	9.00000	0.25000	0.20450	0.16220
5.00000	9.00000	0.30000	0.19140	0.12790
5.00000	9.00000	0.35000	0.17900	0.10170
5.00000	9.00000	0.40000	0.16740	0.08120
5.00000	9.00000	0.45000	0.15650	0.06410
5.00000	9.00000	0.50000	0.14630	0.05130
5.00000	9.00000	0.55000	0.13670	0.04060
5.00000	9.00000	0.60000	0.12770	0.03250
5.00000	9.00000	0.65000	0.11940	0.02580
5.00000	9.00000	0.70000	0.11150	0.02050
5.00000	9.00000	0.75000	0.10410	0.01620
5.00000	10.00000	0.00000	0.22640	0.45550
5.00000	10.00000	0.05000	0.21270	0.36450
5.00000	10.00000	0.10000	0.19970	0.29000
5.00000	10.00000	0.15000	0.18740	0.23050
5.00000	10.00000	0.20000	0.17580	0.18500
5.00000	10.00000	0.25000	0.16470	0.14790
5.00000	10.00000	0.30000	0.15430	0.11840
5.00000	10.00000	0.35000	0.14450	0.09510
5.00000	10.00000	0.40000	0.13530	0.07610
5.00000	10.00000	0.45000	0.12660	0.06040
5.00000	10.00000	0.50000	0.11850	0.04880
5.00000	10.00000	0.55000	0.11080	0.03870
5.00000	10.00000	0.60000	0.10360	0.03120
5.00000	10.00000	0.65000	0.09690	0.02520
5.00000	10.00000	0.70000	0.09050	0.02000
5.00000	10.00000	0.75000	0.08470	0.01610
6.00000	2.00000	0.00000	4.14050	3.96500
6.00000	2.00000	0.05000	3.74060	3.25550
6.00000	2.00000	0.10000	3.38120	2.66210
6.00000	2.00000	0.15000	3.05660	2.20710
6.00000	2.00000	0.20000	2.76890	1.83060
6.00000	2.00000	0.25000	2.50750	1.51790
6.00000	2.00000	0.30000	2.27510	1.26260
6.00000	2.00000	0.35000	2.06600	1.05550
6.00000	2.00000	0.40000	1.87800	0.88290
6.00000	2.00000	0.45000	1.70630	0.74030
6.00000	2.00000	0.50000	1.55390	0.62000
6.00000	2.00000	0.55000	1.41420	0.52190
6.00000	2.00000	0.60000	1.28980	0.43860
6.00000	2.00000	0.65000	1.17630	0.36910
6.00000	2.00000	0.70000	1.07360	0.31190
6.00000	2.00000	0.75000	0.98050	0.26260
6.00000	3.00000	0.00000	1.90510	1.36380
6.00000	3.00000	0.05000	1.73040	1.10180
6.00000	3.00000	0.10000	1.57480	0.89590
6.00000	3.00000	0.15000	1.43400	0.73220
6.00000	3.00000	0.20000	1.30650	0.60060
6.00000	3.00000	0.25000	1.19130	0.49530
6.00000	3.00000	0.30000	1.08680	0.41010
6.00000	3.00000	0.35000	0.99210	0.33940
6.00000	3.00000	0.40000	0.90640	0.28380
6.00000	3.00000	0.45000	0.82860	0.23750
6.00000	3.00000	0.50000	0.75810	0.19880
6.00000	3.00000	0.55000	0.69380	0.16780
6.00000	3.00000	0.60000	0.63530	0.14090
6.00000	3.00000	0.65000	0.58210	0.11880
6.00000	3.00000	0.70000	0.53390	0.10070
6.00000	3.00000	0.75000	0.49000	0.08490
6.00000	4.00000	0.00000	1.07070	0.66160
6.00000	4.00000	0.05000	0.97870	0.52500
6.00000	4.00000	0.10000	0.89500	0.41810
6.00000	4.00000	0.15000	0.81890	0.33570
6.00000	4.00000	0.20000	0.74990	0.26910
6.00000	4.00000	0.25000	0.68660	0.21770
6.00000	4.00000	0.30000	0.62950	0.17690
6.00000	4.00000	0.35000	0.57710	0.14450
6.00000	4.00000	0.40000	0.52950	0.11860
6.00000	4.00000	0.45000	0.48600	0.09780
6.00000	4.00000	0.50000	0.44620	0.08110
6.00000	4.00000	0.55000	0.41010	0.06720
6.00000	4.00000	0.60000	0.37680	0.05630
6.00000	4.00000	0.65000	0.34680	0.04710
6.00000	4.00000	0.70000	0.31890	0.03970
6.00000	4.00000	0.75000	0.29360	0.03350
6.00000	5.00000	0.00000	0.67690	0.41760
6.00000	5.00000	0.05000	0.62140	0.32470
6.00000	5.00000	0.10000	0.57090	0.25260
6.00000	5.00000	0.15000	0.52450	0.19790
6.00000	5.00000	0.20000	0.48190	0.15650
6.00000	5.00000	0.25000	0.44310	0.12360
6.00000	5.00000	0.30000	0.40760	0.09790
6.00000	5.00000	0.35000	0.37520	0.07810
6.00000	5.00000	0.40000	0.34530	0.06270
6.00000	5.00000	0.45000	0.31800	0.05060
6.00000	5.00000	0.50000	0.29290	0.04100
6.00000	5.00000	0.55000	0.27010	0.03330
6.00000	5.00000	0.60000	0.24900	0.02740
6.00000	5.00000	0.65000	0.22960	0.02240
6.00000	5.00000	0.70000	0.21180	0.01860
6.00000	5.00000	0.75000	0.19540	0.01560
6.00000	6.00000	0.00000	0.46250	0.31340
6.00000	6.00000	0.05000	0.42620	0.24190
6.00000	6.00000	0.10000	0.39280	0.18700
6.00000	6.00000	0.15000	0.36230	0.14510
6.00000	6.00000	0.20000	0.33410	0.11240
6.00000	6.00000	0.25000	0.30820	0.08780
6.00000	6.00000	0.30000	0.28430	0.06830
6.00000	6.00000	0.35000	0.26240	0.05350
6.00000	6.00000	0.40000	0.24240	0.04190
6.00000	6.00000	0.45000	0.22380	0.03290
6.00000	6.00000	0.50000	0.20670	0.02610
6.00000	6.00000	0.55000	0.19090	0.02080
6.00000	6.00000	0.60000	0.17640	0.01650
6.00000	6.00000	0.65000	0.16310	0.01330
6.00000	6.00000	0.70000	0.15090	0.01060
6.00000	6.00000	0.75000	0.13960	0.00860
6.00000	7.00000	0.00000	0.33380	0.26000
6.00000	7.00000	0.05000	0.30860	0.20050
6.00000	7.00000	0.10000	0.28550	0.15480
6.00000	7.00000	0.15000	0.26400	0.11960
6.00000	7.00000	0.20000	0.24420	0.09210
6.00000	7.00000	0.25000	0.22590	0.07090
6.00000	7.00000	0.30000	0.20900	0.05500
6.00000	7.00000	0.35000	0.19340	0.04280
6.00000	7.00000	0.40000	0.17900	0.03310
6.00000	7.00000	0.45000	0.16560	0.02570
6.00000	7.00000	0.50000	0.15330	0.02000
6.00000	7.00000	0.55000	0.14200	0.01560
6.00000	7.00000	0.60000	0.13150	0.01230
6.00000	7.00000	0.65000	0.12180	0.00960
6.00000	7.00000	0.70000	0.11280	0.00760
6.00000	7.00000	0.75000	0.10450	0.00600
6.00000	8.00000	0.00000	0.25130	0.22660
6.00000	8.00000	0.05000	0.23310	0.17520
6.00000	8.00000	0.10000	0.21610	0.13530
6.00000	8.00000	0.15000	0.20040	0.10530
6.00000	8.00000	0.20000	0.18580	0.08130
6.00000	8.00000	0.25000	0.17230	0.06290
6.00000	8.00000	0.30000	0.15980	0.04860
6.00000	8.00000	0.35000	0.14810	0.03780
6.00000	8.00000	0.40000	0.13730	0.02950
6.00000	8.00000	0.45000	0.12740	0.02270
6.00000	8.00000	0.50000	0.11810	0.01750
6.00000	8.00000	0.55000	0.10970	0.01360
6.00000	8.00000	0.60000	0.10170	0.01060
6.00000	8.00000	0.65000	0.09430	0.00830
6.00000	8.00000	0.70000	0.08750	0.00640
6.00000	8.00000	0.75000	0.08120	0.00500
6.00000	9.00000	0.00000	0.19540	0.20260
6.00000	9.00000	0.05000	0.18170	0.15690
6.00000	9.00000	0.10000	0.16890	0.12270
6.00000	9.00000	0.15000	0.15700	0.09570
6.00000	9.00000	0.20000	0.14590	0.07400
6.00000	9.00000	0.25000	0.13550	0.05820
6.00000	9.00000	0.30000	0.12590	0.04500
6.00000	9.00000	0.35000	0.11690	0.03500
6.00000	9.00000	0.40000	0.10870	0.02740
6.00000	9.00000	0.45000	0.10100	0.02140
6.00000	9.00000	0.50000	0.09380	0.01650
6.00000	9.00000	0.55000	0.08710	0.01290
6.00000	9.00000	0.60000	0.08100	0.01000
6.00000	9.00000	0.65000	0.07520	0.00780
6.00000	9.00000	0.70000	0.06980	0.00610
6.00000	9.00000	0.75000	0.06490	0.00480
6.00000	10.00000	0.00000	0.15580	0.18310
6.00000	10.00000	0.05000	0.14520	0.14370
6.00000	10.00000	0.10000	0.13530	0.11210
6.00000	10.00000	0.15000	0.12600	0.08760
6.00000	10.00000	0.20000	0.11730	0.06900
6.00000	10.00000	0.25000	0.10920	0.05400
6.00000	10.00000	0.30000	0.10160	0.04230
6.00000	10.00000	0.35000	0.09460	0.03320
6.00000	10.00000	0.40000	0.08800	0.02620
6.00000	10.00000	0.45000	0.08190	0.02030
6.00000	10.00000	0.50000	0.07620	0.01590
6.00000	10.00000	0.55000	0.07080	0.01260
6.00000	10.00000	0.60000	0.06590	0.00990
6.00000	10.00000	0.65000	0.06130	0.00770
6.00000	10.00000	0.70000	0.05700	0.00590
6.00000	10.00000	0.75000	0.05300	0.00460
7.00000	2.00000	0.00000	2.81410	3.74280
7.00000	2.00000	0.05000	2.51670	3.07440
7.00000	2.00000	0.10000	2.25190	2.51750
7.00000	2.00000	0.15000	2.01870	2.08110
7.00000	2.00000	0.20000	1.81070	1.71400
7.00000	2.00000	0.25000	1.62600	1.41690
7.00000	2.00000	0.30000	1.46270	1.17550
7.00000	2.00000	0.35000	1.31580	0.97440
7.00000	2.00000	0.40000	1.18590	0.80960
7.00000	2.00000	0.45000	1.07060	0.67420
7.00000	2.00000	0.50000	0.96650	0.56170
7.00000	2.00000	0.55000	0.87260	0.46830
7.00000	2.00000	0.60000	0.79010	0.39100
7.00000	2.00000	0.65000	0.71530	0.32660
7.00000	2.00000	0.70000	0.64750	0.27340
7.00000	2.00000	0.75000	0.58760	0.22850
7.00000	3.00000	0.00000	1.32710	1.48770
7.00000	3.00000	0.05000	1.19520	1.21820
7.00000	3.00000	0.10000	1.07660	1.00170
7.00000	3.00000	0.15000	0.97140	0.82250
7.00000	3.00000	0.20000	0.87730	0.67980
7.00000	3.00000	0.25000	0.79300	0.56190
7.00000	3.00000	0.30000	0.71760	0.46560
7.00000	3.00000	0.35000	0.64990	0.38690
7.00000	3.00000	0.40000	0.58890	0.32240
7.00000	3.00000	0.45000	0.53420	0.26860
7.00000	3.00000	0.50000	0.48520	0.22400
7.00000	3.00000	0.55000	0.44070	0.18740
7.00000	3.00000	0.60000	0.40070	0.15680
7.00000	3.00000	0.65000	0.36460	0.13180
7.00000	3.00000	0.70000	0.33200	0.11080
7.00000	3.00000	0.75000	0.30260	0.09280
7.00000	4.00000	0.00000	0.75800	0.74400
7.00000	4.00000	0.05000	0.68670	0.60410
7.00000	4.00000	0.10000	0.62210	0.49270
7.00000	4.00000	0.15000	0.56420	0.40380
7.00000	4.00000	0.20000	0.51210	0.33120
7.00000	4.00000	0.25000	0.46520	0.27310
7.00000	4.00000	0.30000	0.42280	0.22560
7.00000	4.00000	0.35000	0.38460	0.18660
7.00000	4.00000	0.40000	0.35010	0.15530
7.00000	4.00000	0.45000	0.31900	0.12940
7.00000	4.00000	0.50000	0.29080	0.10770
7.00000	4.00000	0.55000	0.26510	0.09020
7.00000	4.00000	0.60000	0.24200	0.07580
7.00000	4.00000	0.65000	0.22100	0.06330
7.00000	4.00000	0.70000	0.20210	0.05310
7.00000	4.00000	0.75000	0.18480	0.04480
7.00000	5.00000	0.00000	0.48460	0.42910
7.00000	5.00000	0.05000	0.44080	0.34640
7.00000	5.00000	0.10000	0.40130	0.28070
7.00000	5.00000	0.15000	0.36550	0.22830
7.00000	5.00000	0.20000	0.33300	0.18520
7.00000	5.00000	0.25000	0.30370	0.15170
7.00000	5.00000	0.30000	0.27710	0.12480
7.00000	5.00000	0.35000	0.25290	0.10250
7.00000	5.00000	0.40000	0.23110	0.08480
7.00000	5.00000	0.45000	0.21110	0.07030
7.00000	5.00000	0.50000	0.19310	0.05830
7.00000	5.00000	0.55000	0.17670	0.04860
7.00000	5.00000	0.60000	0.16180	0.04070
7.00000	5.00000	0.65000	0.14830	0.03390
7.00000	5.00000	0.70000	0.13590	0.02860
7.00000	5.00000	0.75000	0.12460	0.02380
7.00000	6.00000	0.00000	0.33370	0.27960
7.00000	6.00000	0.05000	0.30470	0.22290
7.00000	6.00000	0.10000	0.27830	0.17890
7.00000	6.00000	0.15000	0.25440	0.14370
7.00000	6.00000	0.20000	0.23260	0.11610
7.00000	6.00000	0.25000	0.21290	0.09420
7.00000	6.00000	0.30000	0.19480	0.07640
7.00000	6.00000	0.35000	0.17830	0.06270
7.00000	6.00000	0.40000	0.16340	0.05100
7.00000	6.00000	0.45000	0.14980	0.04180
7.00000	6.00000	0.50000	0.13740	0.03460
7.00000	6.00000	0.55000	0.12620	0.02870
7.00000	6.00000	0.60000	0.11580	0.02370
7.00000	6.00000	0.65000	0.10640	0.01970
7.00000	6.00000	0.70000	0.09770	0.01650
7.00000	6.00000	0.75000	0.08980	0.01380
7.00000	7.00000	0.00000	0.24220	0.19780
7.00000	7.00000	0.05000	0.22180	0.15660
7.00000	7.00000	0.10000	0.20330	0.12440
7.00000	7.00000	0.15000	0.18640	0.09950
7.00000	7.00000	0.20000	0.17090	0.07930
7.00000	7.00000	0.25000	0.15690	0.06350
7.00000	7.00000	0.30000	0.14400	0.05110
7.00000	7.00000	0.35000	0.13230	0.04140
7.00000	7.00000	0.40000	0.12150	0.03340
7.00000	7.00000	0.45000	0.11170	0.02710
7.00000	7.00000	0.50000	0.10270	0.02230
7.00000	7.00000	0.55000	0.09440	0.01820
7.00000	7.00000	0.60000	0.08690	0.01490
7.00000	7.00000	0.65000	0.07990	0.01230
7.00000	7.00000	0.70000	0.07360	0.01010
7.00000	7.00000	0.75000	0.06770	0.00850
7.00000	8.00000	0.00000	0.18280	0.15060
7.00000	8.00000	0.05000	0.16800	0.11820
7.00000	8.00000	0.10000	0.15440	0.09310
7.00000	8.00000	0.15000	0.14190	0.07390
7.00000	8.00000	0.20000	0.13050	0.05870
7.00000	8.00000	0.25000	0.12010	0.04680
7.00000	8.00000	0.30000	0.11050	0.03690
7.00000	8.00000	0.35000	0.10170	0.02950
7.00000	8.00000	0.40000	0.09370	0.02370
7.00000	8.00000	0.45000	0.08630	0.01910
7.00000	8.00000	0.50000	0.07950	0.01530
7.00000	8.00000	0.55000	0.07330	0.01250
7.00000	8.00000	0.60000	0.06750	0.01010
7.00000	8.00000	0.65000	0.06220	0.00840
7.00000	8.00000	0.70000	0.05740	0.00680
7.00000	8.00000	0.75000	0.05300	0.00550
7.00000	9.00000	0.00000	0.14240	0.12000
7.00000	9.00000	0.05000	0.13120	0.09420
7.00000	9.00000	0.10000	0.12090	0.07390
7.00000	9.00000	0.15000	0.11140	0.05800
7.00000	9.00000	0.20000	0.10280	0.04560
7.00000	9.00000	0.25000	0.09470	0.03610
7.00000	9.00000	0.30000	0.08740	0.02840
7.00000	9.00000	0.35000	0.08060	0.02260
7.00000	9.00000	0.40000	0.07440	0.01790
7.00000	9.00000	0.45000	0.06860	0.01430
7.00000	9.00000	0.50000	0.06330	0.01140
7.00000	9.00000	0.55000	0.05850	0.00910
7.00000	9.00000	0.60000	0.05400	0.00730
7.00000	9.00000	0.65000	0.04990	0.00590
7.00000	9.00000	0.70000	0.04610	0.00480
7.00000	9.00000	0.75000	0.04260	0.00390
7.00000	10.00000	0.00000	0.11370	0.10160
7.00000	10.00000	0.05000	0.10500	0.07930
7.00000	10.00000	0.10000	0.09700	0.06170
7.00000	10.00000	0.15000	0.08960	0.04860
7.00000	10.00000	0.20000	0.08280	0.03810
7.00000	10.00000	0.25000	0.07650	0.03000
7.00000	10.00000	0.30000	0.07070	0.02340
7.00000	10.00000	0.35000	0.06540	0.01850
7.00000	10.00000	0.40000	0.06040	0.01460
7.00000	10.00000	0.45000	0.05590	0.01160
7.00000	10.00000	0.50000	0.05160	0.00920
7.00000	10.00000	0.55000	0.04770	0.00730
7.00000	10.00000	0.60000	0.04410	0.00580
7.00000	10.00000	0.65000	0.04080	0.00460
7.00000	10.00000	0.70000	0.03780	0.00370
7.00000	10.00000	0.75000	0.03500	0.00300
8.00000	2.00000	0.00000	2.00540	3.11880
8.00000	2.00000	0.05000	1.77640	2.55170
8.00000	2.00000	0.10000	1.57600	2.09040
8.00000	2.00000	0.15000	1.40070	1.71370
8.00000	2.00000	0.20000	1.24570	1.40820
8.00000	2.00000	0.25000	1.11040	1.16160
8.00000	2.00000	0.30000	0.99030	0.95680
8.00000	2.00000	0.35000	0.88430	0.79170
8.00000	2.00000	0.40000	0.79110	0.65350
8.00000	2.00000	0.45000	0.70830	0.54200
8.00000	2.00000	0.50000	0.63460	0.44850
8.00000	2.00000	0.55000	0.56880	0.37230
8.00000	2.00000	0.60000	0.51100	0.30920
8.00000	2.00000	0.65000	0.46010	0.25700
8.00000	2.00000	0.70000	0.41380	0.21400
8.00000	2.00000	0.75000	0.37250	0.17800
8.00000	3.00000	0.00000	0.96380	1.39990
8.00000	3.00000	0.05000	0.85930	1.14290
8.00000	3.00000	0.10000	0.76920	0.93740
8.00000	3.00000	0.15000	0.68760	0.77070
8.00000	3.00000	0.20000	0.61630	0.63600
8.00000	3.00000	0.25000	0.55230	0.52490
8.00000	3.00000	0.30000	0.49630	0.43400
8.00000	3.00000	0.35000	0.44560	0.35960
8.00000	3.00000	0.40000	0.40120	0.29860
8.00000	3.00000	0.45000	0.36140	0.24830
8.00000	3.00000	0.50000	0.32580	0.20650
8.00000	3.00000	0.55000	0.29390	0.17160
8.00000	3.00000	0.60000	0.26550	0.14290
8.00000	3.00000	0.65000	0.24000	0.11960
8.00000	3.00000	0.70000	0.21720	0.09980
8.00000	3.00000	0.75000	0.19680	0.08340
8.00000	4.00000	0.00000	0.55830	0.74650
8.00000	4.00000	0.05000	0.50110	0.61130
8.00000	4.00000	0.10000	0.45040	0.50050
8.00000	4.00000	0.15000	0.40510	0.41240
8.00000	4.00000	0.20000	0.36470	0.33920
8.00000	4.00000	0.25000	0.32880	0.28020
8.00000	4.00000	0.30000	0.29660	0.23180
8.00000	4.00000	0.35000	0.26790	0.19190
8.00000	4.00000	0.40000	0.24210	0.15930
8.00000	4.00000	0.45000	0.21900	0.13230
8.00000	4.00000	0.50000	0.19820	0.11050
8.00000	4.00000	0.55000	0.17970	0.09200
8.00000	4.00000	0.60000	0.16300	0.07680
8.00000	4.00000	0.65000	0.14790	0.06390
8.00000	4.00000	0.70000	0.13430	0.05370
8.00000	4.00000	0.75000	0.12210	0.04480
8.00000	5.00000	0.00000	0.36030	0.44670
8.00000	5.00000	0.05000	0.32480	0.36470
8.00000	5.00000	0.10000	0.29320	0.29830
8.00000	5.00000	0.15000	0.26490	0.24470
8.00000	5.00000	0.20000	0.23960	0.20110
8.00000	5.00000	0.25000	0.21680	0.16540
8.00000	5.00000	0.30000	0.19630	0.13680
8.00000	5.00000	0.35000	0.17800	0.11310
8.00000	5.00000	0.40000	0.16140	0.09390
8.00000	5.00000	0.45000	0.14660	0.07800
8.00000	5.00000	0.50000	0.13320	0.06500
8.00000	5.00000	0.55000	0.12110	0.05420
8.00000	5.00000	0.60000	0.11020	0.04520
8.00000	5.00000	0.65000	0.10030	0.03790
8.00000	5.00000	0.70000	0.09130	0.03170
8.00000	5.00000	0.75000	0.08340	0.02660
8.00000	6.00000	0.00000	0.24980	0.29090
8.00000	6.00000	0.05000	0.22620	0.23620
8.00000	6.00000	0.10000	0.20490	0.19260
8.00000	6.00000	0.15000	0.18580	0.15680
8.00000	6.00000	0.20000	0.16860	0.12900
8.00000	6.00000	0.25000	0.15310	0.10560
8.00000	6.00000	0.30000	0.13910	0.08730
8.00000	6.00000	0.35000	0.12660	0.07190
8.00000	6.00000	0.40000	0.11510	0.05940
8.00000	6.00000	0.45000	0.10480	0.04940
8.00000	6.00000	0.50000	0.09550	0.04090
8.00000	6.00000	0.55000	0.08710	0.03410
8.00000	6.00000	0.60000	0.07940	0.02840
8.00000	6.00000	0.65000	0.07260	0.02370
8.00000	6.00000	0.70000	0.06630	0.01990
8.00000	6.00000	0.75000	0.06060	0.01650
8.00000	7.00000	0.00000	0.18230	0.19890
8.00000	7.00000	0.05000	0.16550	0.16080
8.00000	7.00000	0.10000	0.15040	0.13060
8.00000	7.00000	0.15000	0.13690	0.10630
8.00000	7.00000	0.20000	0.12450	0.08660
8.00000	7.00000	0.25000	0.11350	0.07080
8.00000	7.00000	0.30000	0.10340	0.05820
8.00000	7.00000	0.35000	0.09430	0.04760
8.00000	7.00000	0.40000	0.08610	0.03950
8.00000	7.00000	0.45000	0.07850	0.03250
8.00000	7.00000	0.50000	0.07170	0.02690
8.00000	7.00000	0.55000	0.06550	0.02240
8.00000	7.00000	0.60000	0.06000	0.01860
8.00000	7.00000	0.65000	0.05490	0.01550
8.00000	7.00000	0.70000	0.05020	0.01300
8.00000	7.00000	0.75000	0.04600	0.01080
8.00000	8.00000	0.00000	0.13810	0.14270
8.00000	8.00000	0.05000	0.12580	0.11530
8.00000	8.00000	0.10000	0.11470	0.09280
8.00000	8.00000	0.15000	0.10470	0.07500
8.00000	8.00000	0.20000	0.09550	0.06100
8.00000	8.00000	0.25000	0.08730	0.04970
8.00000	8.00000	0.30000	0.07970	0.04050
8.00000	8.00000	0.35000	0.07290	0.03310
8.00000	8.00000	0.40000	0.06660	0.02720
8.00000	8.00000	0.45000	0.06100	0.02230
8.00000	8.00000	0.50000	0.05580	0.01840
8.00000	8.00000	0.55000	0.05120	0.01530
8.00000	8.00000	0.60000	0.04690	0.01260
8.00000	8.00000	0.65000	0.04300	0.01050
8.00000	8.00000	0.70000	0.03940	0.00880
8.00000	8.00000	0.75000	0.03620	0.00740
8.00000	9.00000	0.00000	0.10790	0.10630
8.00000	9.00000	0.05000	0.09860	0.08500
8.00000	9.00000	0.10000	0.09010	0.06830
8.00000	9.00000	0.15000	0.08250	0.05500
8.00000	9.00000	0.20000	0.07540	0.04430
8.00000	9.00000	0.25000	0.06900	0.03580
8.00000	9.00000	0.30000	0.06320	0.02910
8.00000	9.00000	0.35000	0.05790	0.02380
8.00000	9.00000	0.40000	0.05310	0.01930
8.00000	9.00000	0.45000	0.04870	0.01590
8.00000	9.00000	0.50000	0.04470	0.01300
8.00000	9.00000	0.55000	0.04100	0.01080
8.00000	9.00000	0.60000	0.03760	0.00890
8.00000	9.00000	0.65000	0.03450	0.00730
8.00000	9.00000	0.70000	0.03170	0.00610
8.00000	9.00000	0.75000	0.02920	0.00510
8.00000	10.00000	0.00000	0.08630	0.08270
8.00000	10.00000	0.05000	0.07910	0.06590
8.00000	10.00000	0.10000	0.07250	0.05270
8.00000	10.00000	0.15000	0.06640	0.04230
8.00000	10.00000	0.20000	0.06090	0.03390
8.00000	10.00000	0.25000	0.05590	0.02730
8.00000	10.00000	0.30000	0.05130	0.02190
8.00000	10.00000	0.35000	0.04710	0.01780
8.00000	10.00000	0.40000	0.04320	0.01440
8.00000	10.00000	0.45000	0.03970	0.01170
8.00000	10.00000	0.50000	0.03650	0.00950
8.00000	10.00000	0.55000	0.03360	0.00780
8.00000	10.00000	0.60000	0.03090	0.00640
8.00000	10.00000	0.65000	0.02840	0.00520
8.00000	10.00000	0.70000	0.02610	0.00440
8.00000	10.00000	0.75000	0.02400	0.00360
9.00000	2.00000	0.00000	1.48920	2.44590
9.00000	2.00000	0.05000	1.30830	1.99420
9.00000	2.00000	0.10000	1.15150	1.63020
9.00000	2.00000	0.15000	1.01520	1.33580
9.00000	2.00000	0.20000	0.89590	1.09380
9.00000	2.00000	0.25000	0.79170	0.89720
9.00000	2.00000	0.30000	0.70060	0.73700
9.00000	2.00000	0.35000	0.62160	0.60570
9.00000	2.00000	0.40000	0.55200	0.49940
9.00000	2.00000	0.45000	0.49080	0.41160
9.00000	2.00000	0.50000	0.43680	0.34040
9.00000	2.00000	0.55000	0.38930	0.28060
9.00000	2.00000	0.60000	0.34740	0.23210
9.00000	2.00000	0.65000	0.31040	0.19060
9.00000	2.00000	0.70000	0.27780	0.15910
9.00000	2.00000	0.75000	0.24850	0.13190
9.00000	3.00000	0.00000	0.72520	1.21080
9.00000	3.00000	0.05000	0.64140	0.98710
9.00000	3.00000	0.10000	0.56940	0.80860
9.00000	3.00000	0.15000	0.50570	0.66430
9.00000	3.00000	0.20000	0.44960	0.54570
9.00000	3.00000	0.25000	0.39990	0.45020
9.00000	3.00000	0.30000	0.35650	0.37080
9.00000	3.00000	0.35000	0.31830	0.30630
9.00000	3.00000	0.40000	0.28420	0.25350
9.00000	3.00000	0.45000	0.25430	0.20930
9.00000	3.00000	0.50000	0.22800	0.17380
9.00000	3.00000	0.55000	0.20440	0.14400
9.00000	3.00000	0.60000	0.18350	0.11970
9.00000	3.00000	0.65000	0.16480	0.09930
9.00000	3.00000	0.70000	0.14830	0.08260
9.00000	3.00000	0.75000	0.13360	0.06890
9.00000	4.00000	0.00000	0.42420	0.68770
9.00000	4.00000	0.05000	0.37800	0.56330
9.00000	4.00000	0.10000	0.33720	0.46170
9.00000	4.00000	0.15000	0.30110	0.37950
9.00000	4.00000	0.20000	0.26910	0.31270
9.00000	4.00000	0.25000	0.24080	0.25740
9.00000	4.00000	0.30000	0.21580	0.21300
9.00000	4.00000	0.35000	0.19350	0.17560
9.00000	4.00000	0.40000	0.17380	0.14560
9.00000	4.00000	0.45000	0.15620	0.12070
9.00000	4.00000	0.50000	0.14050	0.10030
9.00000	4.00000	0.55000	0.12650	0.08340
9.00000	4.00000	0.60000	0.11410	0.06940
9.00000	4.00000	0.65000	0.10300	0.05790
9.00000	4.00000	0.70000	0.09300	0.04810
9.00000	4.00000	0.75000	0.08410	0.04020
9.00000	5.00000	0.00000	0.27620	0.43020
9.00000	5.00000	0.05000	0.24720	0.35210
9.00000	5.00000	0.10000	0.22150	0.28910
9.00000	5.00000	0.15000	0.19860	0.23770
9.00000	5.00000	0.20000	0.17830	0.19580
9.00000	5.00000	0.25000	0.16020	0.16130
9.00000	5.00000	0.30000	0.14410	0.13320
9.00000	5.00000	0.35000	0.12980	0.11040
9.00000	5.00000	0.40000	0.11700	0.09140
9.00000	5.00000	0.45000	0.10550	0.07580
9.00000	5.00000	0.50000	0.09530	0.06290
9.00000	5.00000	0.55000	0.08610	0.05230
9.00000	5.00000	0.60000	0.07790	0.04350
9.00000	5.00000	0.65000	0.07050	0.03630
9.00000	5.00000	0.70000	0.06390	0.03030
9.00000	5.00000	0.75000	0.05790	0.02530
9.00000	6.00000	0.00000	0.19270	0.28760
9.00000	6.00000	0.05000	0.17310	0.23520
9.00000	6.00000	0.10000	0.15570	0.19280
9.00000	6.00000	0.15000	0.14020	0.15820
9.00000	6.00000	0.20000	0.12630	0.13030
9.00000	6.00000	0.25000	0.11390	0.10720
9.00000	6.00000	0.30000	0.10280	0.08860
9.00000	6.00000	0.35000	0.09290	0.07310
9.00000	6.00000	0.40000	0.08390	0.06070
9.00000	6.00000	0.45000	0.07600	0.05020
9.00000	6.00000	0.50000	0.06880	0.04180
9.00000	6.00000	0.55000	0.06240	0.03470
9.00000	6.00000	0.60000	0.05660	0.02900
9.00000	6.00000	0.65000	0.05140	0.02410
9.00000	6.00000	0.70000	0.04670	0.02010
9.00000	6.00000	0.75000	0.04250	0.01680
9.00000	7.00000	0.00000	0.14130	0.20090
9.00000	7.00000	0.05000	0.12730	0.16380
9.00000	7.00000	0.10000	0.11490	0.13410
9.00000	7.00000	0.15000	0.10380	0.10970
9.00000	7.00000	0.20000	0.09370	0.09020
9.00000	7.00000	0.25000	0.08480	0.07410
9.00000	7.00000	0.30000	0.07680	0.06110
9.00000	7.00000	0.35000	0.06960	0.05060
9.00000	7.00000	0.40000	0.06310	0.04180
9.00000	7.00000	0.45000	0.05730	0.03460
9.00000	7.00000	0.50000	0.05200	0.02890
9.00000	7.00000	0.55000	0.04720	0.02380
9.00000	7.00000	0.60000	0.04300	0.02000
9.00000	7.00000	0.65000	0.03910	0.01660
9.00000	7.00000	0.70000	0.03560	0.01390
9.00000	7.00000	0.75000	0.03250	0.01160
9.00000	8.00000	0.00000	0.10750	0.14530
9.00000	8.00000	0.05000	0.09720	0.11780
9.00000	8.00000	0.10000	0.08790	0.09640
9.00000	8.00000	0.15000	0.07970	0.07890
9.00000	8.00000	0.20000	0.07220	0.06460
9.00000	8.00000	0.25000	0.06550	0.05290
9.00000	8.00000	0.30000	0.05940	0.04360
9.00000	8.00000	0.35000	0.05400	0.03600
9.00000	8.00000	0.40000	0.04910	0.02970
9.00000	8.00000	0.45000	0.04470	0.02470
9.00000	8.00000	0.50000	0.04060	0.02050
9.00000	8.00000	0.55000	0.03700	0.01700
9.00000	8.00000	0.60000	0.03370	0.01410
9.00000	8.00000	0.65000	0.03080	0.01170
9.00000	8.00000	0.70000	0.02810	0.00980
9.00000	8.00000	0.75000	0.02560	0.00820
9.00000	9.00000	0.00000	0.08430	0.10730
9.00000	9.00000	0.05000	0.07640	0.08670
9.00000	9.00000	0.10000	0.06930	0.07060
9.00000	9.00000	0.15000	0.06290	0.05770
9.00000	9.00000	0.20000	0.05720	0.04730
9.00000	9.00000	0.25000	0.05200	0.03860
9.00000	9.00000	0.30000	0.04730	0.03190
9.00000	9.00000	0.35000	0.04310	0.02600
9.00000	9.00000	0.40000	0.03920	0.02160
9.00000	9.00000	0.45000	0.03580	0.01780
9.00000	9.00000	0.50000	0.03260	0.01470
9.00000	9.00000	0.55000	0.02980	0.01230
9.00000	9.00000	0.60000	0.02720	0.01020
9.00000	9.00000	0.65000	0.02480	0.00840
9.00000	9.00000	0.70000	0.02270	0.00710
9.00000	9.00000	0.75000	0.02070	0.00590
9.00000	10.00000	0.00000	0.06760	0.08160
9.00000	10.00000	0.05000	0.06140	0.06610
9.00000	10.00000	0.10000	0.05590	0.05350
9.00000	10.00000	0.15000	0.05080	0.04360
9.00000	10.00000	0.20000	0.04630	0.03540
9.00000	10.00000	0.25000	0.04220	0.02890
9.00000	10.00000	0.30000	0.03850	0.02380
9.00000	10.00000	0.35000	0.03510	0.01950
9.00000	10.00000	0.40000	0.03200	0.01600
9.00000	10.00000	0.45000	0.02920	0.01330
9.00000	10.00000	0.50000	0.02670	0.01100
9.00000	10.00000	0.55000	0.02450	0.00900
9.00000	10.00000	0.60000	0.02240	0.00750
9.00000	10.00000	0.65000	0.02050	0.00620
9.00000	10.00000	0.70000	0.01870	0.00520
9.00000	10.00000	0.75000	0.01720	0.00430
10.00000	2.00000	0.00000	1.14430	1.87390
10.00000	2.00000	0.05000	0.99770	1.52260
10.00000	2.00000	0.10000	0.87090	1.24080
10.00000	2.00000	0.15000	0.76210	1.01120
10.00000	2.00000	0.20000	0.66770	0.82430
10.00000	2.00000	0.25000	0.58620	0.67470
10.00000	2.00000	0.30000	0.51560	0.55230
10.00000	2.00000	0.35000	0.45370	0.45290
10.00000	2.00000	0.40000	0.40010	0.37130
10.00000	2.00000	0.45000	0.35330	0.30510
10.00000	2.00000	0.50000	0.31240	0.25110
10.00000	2.00000	0.55000	0.27670	0.20660
10.00000	2.00000	0.60000	0.24560	0.17030
10.00000	2.00000	0.65000	0.21800	0.14030
10.00000	2.00000	0.70000	0.19400	0.11570
10.00000	2.00000	0.75000	0.17280	0.09560
10.00000	3.00000	0.00000	0.56180	1.00000
10.00000	3.00000	0.05000	0.49390	0.81810
10.00000	3.00000	0.10000	0.43470	0.66900
10.00000	3.00000	0.15000	0.38350	0.54800
10.00000	3.00000	0.20000	0.33830	0.44860
10.00000	3.00000	0.25000	0.29930	0.36830
10.00000	3.00000	0.30000	0.26510	0.30290
10.00000	3.00000	0.35000	0.23510	0.24950
10.00000	3.00000	0.40000	0.20870	0.20580
10.00000	3.00000	0.45000	0.18540	0.16980
10.00000	3.00000	0.50000	0.16520	0.14020
10.00000	3.00000	0.55000	0.14730	0.11590
10.00000	3.00000	0.60000	0.13140	0.09590
10.00000	3.00000	0.65000	0.11740	0.07940
10.00000	3.00000	0.70000	0.10500	0.06590
10.00000	3.00000	0.75000	0.09400	0.05460
10.00000	4.00000	0.00000	0.33170	0.60300
10.00000	4.00000	0.05000	0.29320	0.49280
10.00000	4.00000	0.10000	0.25960	0.40370
10.00000	4.00000	0.15000	0.23030	0.33180
10.00000	4.00000	0.20000	0.20450	0.27190
10.00000	4.00000	0.25000	0.18180	0.22410
10.00000	4.00000	0.30000	0.16180	0.18480
10.00000	4.00000	0.35000	0.14420	0.15220
10.00000	4.00000	0.40000	0.12870	0.12570
10.00000	4.00000	0.45000	0.11500	0.10410
10.00000	4.00000	0.50000	0.10290	0.08620
10.00000	4.00000	0.55000	0.09210	0.07130
10.00000	4.00000	0.60000	0.08260	0.05920
10.00000	4.00000	0.65000	0.07410	0.04910
10.00000	4.00000	0.70000	0.06660	0.04090
10.00000	4.00000	0.75000	0.05990	0.03380
10.00000	5.00000	0.00000	0.21730	0.39400
10.00000	5.00000	0.05000	0.19300	0.32160
10.00000	5.00000	0.10000	0.17170	0.26370
10.00000	5.00000	0.15000	0.15290	0.21660
10.00000	5.00000	0.20000	0.13640	0.17810
10.00000	5.00000	0.25000	0.12180	0.14680
10.00000	5.00000	0.30000	0.10890	0.12100
10.00000	5.00000	0.35000	0.09750	0.09990
10.00000	5.00000	0.40000	0.08730	0.08270
10.00000	5.00000	0.45000	0.07830	0.06840
10.00000	5.00000	0.50000	0.07030	0.05670
10.00000	5.00000	0.55000	0.06320	0.04700
10.00000	5.00000	0.60000	0.05680	0.03910
10.00000	5.00000	0.65000	0.05120	0.03250
10.00000	5.00000	0.70000	0.04610	0.02700
10.00000	5.00000	0.75000	0.04160	0.02250
10.00000	6.00000	0.00000	0.15240	0.27110
10.00000	6.00000	0.05000	0.13600	0.22170
10.00000	6.00000	0.10000	0.12140	0.18180
10.00000	6.00000	0.15000	0.10860	0.14950
10.00000	6.00000	0.20000	0.09720	0.12270
10.00000	6.00000	0.25000	0.08710	0.10120
10.00000	6.00000	0.30000	0.07810	0.08340
10.00000	6.00000	0.35000	0.07010	0.06900
10.00000	6.00000	0.40000	0.06310	0.05700
10.00000	6.00000	0.45000	0.05670	0.04730
10.00000	6.00000	0.50000	0.05110	0.03910
10.00000	6.00000	0.55000	0.04610	0.03260
10.00000	6.00000	0.60000	0.04160	0.02710
10.00000	6.00000	0.65000	0.03750	0.02250
10.00000	6.00000	0.70000	0.03390	0.01870
10.00000	6.00000	0.75000	0.03070	0.01560
10.00000	7.00000	0.00000	0.11220	0.19400
10.00000	7.00000	0.05000	0.10040	0.15870
10.00000	7.00000	0.10000	0.09000	0.12980
10.00000	7.00000	0.15000	0.08080	0.10660
10.00000	7.00000	0.20000	0.07250	0.08780
10.00000	7.00000	0.25000	0.06520	0.07230
10.00000	7.00000	0.30000	0.05860	0.05960
10.00000	7.00000	0.35000	0.05280	0.04940
10.00000	7.00000	0.40000	0.04760	0.04080
10.00000	7.00000	0.45000	0.04290	0.03370
10.00000	7.00000	0.50000	0.03880	0.02800
10.00000	7.00000	0.55000	0.03510	0.02330
10.00000	7.00000	0.60000	0.03170	0.01940
10.00000	7.00000	0.65000	0.02870	0.01610
10.00000	7.00000	0.70000	0.02600	0.01340
10.00000	7.00000	0.75000	0.02360	0.01120
10.00000	8.00000	0.00000	0.08570	0.14240
10.00000	8.00000	0.05000	0.07690	0.11680
10.00000	8.00000	0.10000	0.06910	0.09550
10.00000	8.00000	0.15000	0.06220	0.07830
10.00000	8.00000	0.20000	0.05600	0.06450
10.00000	8.00000	0.25000	0.05050	0.05310
10.00000	8.00000	0.30000	0.04560	0.04370
10.00000	8.00000	0.35000	0.04110	0.03610
10.00000	8.00000	0.40000	0.03720	0.02980
10.00000	8.00000	0.45000	0.03360	0.02470
10.00000	8.00000	0.50000	0.03040	0.02050
10.00000	8.00000	0.55000	0.02760	0.01710
10.00000	8.00000	0.60000	0.02500	0.01420
10.00000	8.00000	0.65000	0.02270	0.01180
10.00000	8.00000	0.70000	0.02060	0.00990
10.00000	8.00000	0.75000	0.01870	0.00830
10.00000	9.00000	0.00000	0.06730	0.10690
10.00000	9.00000	0.05000	0.06060	0.08750
10.00000	9.00000	0.10000	0.05460	0.07160
10.00000	9.00000	0.15000	0.04930	0.05880
10.00000	9.00000	0.20000	0.04450	0.04820
10.00000	9.00000	0.25000	0.04020	0.03980
10.00000	9.00000	0.30000	0.03640	0.03270
10.00000	9.00000	0.35000	0.03290	0.02700
10.00000	9.00000	0.40000	0.02980	0.02230
10.00000	9.00000	0.45000	0.02700	0.01850
10.00000	9.00000	0.50000	0.02450	0.01530
10.00000	9.00000	0.55000	0.02230	0.01280
10.00000	9.00000	0.60000	0.02020	0.01060
10.00000	9.00000	0.65000	0.01840	0.00890
10.00000	9.00000	0.70000	0.01670	0.00740
10.00000	9.00000	0.75000	0.01520	0.00620
10.00000	10.00000	0.00000	0.05420	0.08210
10.00000	10.00000	0.05000	0.04890	0.06700
10.00000	10.00000	0.10000	0.04420	0.05480
10.00000	10.00000	0.15000	0.03990	0.04480
10.00000	10.00000	0.20000	0.03610	0.03670
10.00000	10.00000	0.25000	0.03270	0.03020
10.00000	10.00000	0.30000	0.02970	0.02490
10.00000	10.00000	0.35000	0.02690	0.02060
10.00000	10.00000	0.40000	0.02440	0.01700
10.00000	10.00000	0.45000	0.02220	0.01410
10.00000	10.00000	0.50000	0.02020	0.01160
10.00000	10.00000	0.55000	0.01830	0.00970
10.00000	10.00000	0.60000	0.01670	0.00800
10.00000	10.00000	0.65000	0.01520	0.00670
10.00000	10.00000	0.70000	0.01380	0.00560
10.00000	10.00000	0.75000	0.01260	0.00470
11.00000	2.00000	0.00000	0.89820	1.41360
11.00000	2.00000	0.05000	0.78260	1.14620
11.00000	2.00000	0.10000	0.67880	0.92930
11.00000	2.00000	0.15000	0.58950	0.75580
11.00000	2.00000	0.20000	0.51350	0.61540
11.00000	2.00000	0.25000	0.44750	0.50080
11.00000	2.00000	0.30000	0.39080	0.40880
11.00000	2.00000	0.35000	0.34220	0.33400
11.00000	2.00000	0.40000	0.29990	0.27280
11.00000	2.00000	0.45000	0.26330	0.22330
11.00000	2.00000	0.50000	0.23140	0.18320
11.00000	2.00000	0.55000	0.20370	0.15020
11.00000	2.00000	0.60000	0.17980	0.12330
11.00000	2.00000	0.65000	0.15890	0.10140
11.00000	2.00000	0.70000	0.14060	0.08340
11.00000	2.00000	0.75000	0.12430	0.06860
11.00000	3.00000	0.00000	0.44670	0.81120
11.00000	3.00000	0.05000	0.39010	0.66180
11.00000	3.00000	0.10000	0.34090	0.53810
11.00000	3.00000	0.15000	0.29860	0.44020
11.00000	3.00000	0.20000	0.26170	0.36030
11.00000	3.00000	0.25000	0.23000	0.29480
11.00000	3.00000	0.30000	0.20250	0.24170
11.00000	3.00000	0.35000	0.17840	0.19840
11.00000	3.00000	0.40000	0.15760	0.16300
11.00000	3.00000	0.45000	0.13930	0.13420
11.00000	3.00000	0.50000	0.12320	0.11050
11.00000	3.00000	0.55000	0.10910	0.09110
11.00000	3.00000	0.60000	0.09690	0.07520
11.00000	3.00000	0.65000	0.08620	0.06210
11.00000	3.00000	0.70000	0.07670	0.05120
11.00000	3.00000	0.75000	0.06830	0.04240
11.00000	4.00000	0.00000	0.26500	0.51180
11.00000	4.00000	0.05000	0.23280	0.41850
11.00000	4.00000	0.10000	0.20490	0.34200
11.00000	4.00000	0.15000	0.18030	0.28030
11.00000	4.00000	0.20000	0.15920	0.22960
11.00000	4.00000	0.25000	0.14070	0.18860
11.00000	4.00000	0.30000	0.12450	0.15530
11.00000	4.00000	0.35000	0.11030	0.12770
11.00000	4.00000	0.40000	0.09790	0.10510
11.00000	4.00000	0.45000	0.08690	0.08680
11.00000	4.00000	0.50000	0.07730	0.07170
11.00000	4.00000	0.55000	0.06890	0.05920
11.00000	4.00000	0.60000	0.06140	0.04890
11.00000	4.00000	0.65000	0.05490	0.04050
11.00000	4.00000	0.70000	0.04900	0.03360
11.00000	4.00000	0.75000	0.04390	0.02780
11.00000	5.00000	0.00000	0.17450	0.34660
11.00000	5.00000	0.05000	0.15390	0.28330
11.00000	5.00000	0.10000	0.13620	0.23200
11.00000	5.00000	0.15000	0.12060	0.19020
11.00000	5.00000	0.20000	0.10690	0.15650
11.00000	5.00000	0.25000	0.09490	0.12820
11.00000	5.00000	0.30000	0.08430	0.10560
11.00000	5.00000	0.35000	0.07500	0.08710
11.00000	5.00000	0.40000	0.06680	0.07180
11.00000	5.00000	0.45000	0.05960	0.05930
11.00000	5.00000	0.50000	0.05320	0.04900
11.00000	5.00000	0.55000	0.04760	0.04070
11.00000	5.00000	0.60000	0.04260	0.03360
11.00000	5.00000	0.65000	0.03810	0.02790
11.00000	5.00000	0.70000	0.03420	0.02310
11.00000	5.00000	0.75000	0.03070	0.01930
11.00000	6.00000	0.00000	0.12300	0.24600
11.00000	6.00000	0.05000	0.10900	0.20090
11.00000	6.00000	0.10000	0.09680	0.16470
11.00000	6.00000	0.15000	0.08600	0.13530
11.00000	6.00000	0.20000	0.07650	0.11110
11.00000	6.00000	0.25000	0.06810	0.09150
11.00000	6.00000	0.30000	0.06080	0.07520
11.00000	6.00000	0.35000	0.05430	0.06200
11.00000	6.00000	0.40000	0.04850	0.05130
11.00000	6.00000	0.45000	0.04340	0.04240
11.00000	6.00000	0.50000	0.03890	0.03500
11.00000	6.00000	0.55000	0.03490	0.02910
11.00000	6.00000	0.60000	0.03130	0.02420
11.00000	6.00000	0.65000	0.02820	0.02000
11.00000	6.00000	0.70000	0.02530	0.01660
11.00000	6.00000	0.75000	0.02280	0.01390
11.00000	7.00000	0.00000	0.09090	0.17990
11.00000	7.00000	0.05000	0.08090	0.14750
11.00000	7.00000	0.10000	0.07200	0.12080
11.00000	7.00000	0.15000	0.06420	0.09920
11.00000	7.00000	0.20000	0.05730	0.08130
11.00000	7.00000	0.25000	0.05120	0.06720
11.00000	7.00000	0.30000	0.04580	0.05530
11.00000	7.00000	0.35000	0.04100	0.04570
11.00000	7.00000	0.40000	0.03680	0.03780
11.00000	7.00000	0.45000	0.03300	0.03130
11.00000	7.00000	0.50000	0.02970	0.02590
11.00000	7.00000	0.55000	0.02670	0.02150
11.00000	7.00000	0.60000	0.02400	0.01780
11.00000	7.00000	0.65000	0.02160	0.01480
11.00000	7.00000	0.70000	0.01950	0.01230
11.00000	7.00000	0.75000	0.01760	0.01030
11.00000	8.00000	0.00000	0.06970	0.13530
11.00000	8.00000	0.05000	0.06220	0.11070
11.00000	8.00000	0.10000	0.05550	0.09090
11.00000	8.00000	0.15000	0.04970	0.07450
11.00000	8.00000	0.20000	0.04470	0.06130
11.00000	8.00000	0.25000	0.04000	0.05050
11.00000	8.00000	0.30000	0.03590	0.04170
11.00000	8.00000	0.35000	0.03220	0.03450
11.00000	8.00000	0.40000	0.02900	0.02850
11.00000	8.00000	0.45000	0.02610	0.02360
11.00000	8.00000	0.50000	0.02340	0.01960
11.00000	8.00000	0.55000	0.02110	0.01620
11.00000	8.00000	0.60000	0.01900	0.01350
11.00000	8.00000	0.65000	0.01720	0.01120
11.00000	8.00000	0.70000	0.01550	0.00930
11.00000	8.00000	0.75000	0.01400	0.00780
11.00000	9.00000	0.00000	0.05490	0.10380
11.00000	9.00000	0.05000	0.04940	0.08490
11.00000	9.00000	0.10000	0.04420	0.06960
11.00000	9.00000	0.15000	0.03960	0.05720
11.00000	9.00000	0.20000	0.03560	0.04700
11.00000	9.00000	0.25000	0.03190	0.03880
11.00000	9.00000	0.30000	0.02870	0.03190
11.00000	9.00000	0.35000	0.02580	0.02640
11.00000	9.00000	0.40000	0.02330	0.02190
11.00000	9.00000	0.45000	0.02090	0.01810
11.00000	9.00000	0.50000	0.01890	0.01500
11.00000	9.00000	0.55000	0.01710	0.01250
11.00000	9.00000	0.60000	0.01540	0.01040
11.00000	9.00000	0.65000	0.01390	0.00860
11.00000	9.00000	0.70000	0.01260	0.00720
11.00000	9.00000	0.75000	0.01140	0.00600
11.00000	10.00000	0.00000	0.04450	0.08070
11.00000	10.00000	0.05000	0.03990	0.06600
11.00000	10.00000	0.10000	0.03580	0.05410
11.00000	10.00000	0.15000	0.03220	0.04450
11.00000	10.00000	0.20000	0.02890	0.03660
11.00000	10.00000	0.25000	0.02600	0.03020
11.00000	10.00000	0.30000	0.02350	0.02480
11.00000	10.00000	0.35000	0.02120	0.02050
11.00000	10.00000	0.40000	0.01910	0.01710
11.00000	10.00000	0.45000	0.01720	0.01410
11.00000	10.00000	0.50000	0.01560	0.01170
11.00000	10.00000	0.55000	0.01410	0.00970
11.00000	10.00000	0.60000	0.01280	0.00810
11.00000	10.00000	0.65000	0.01160	0.00670
11.00000	10.00000	0.70000	0.01050	0.00560
11.00000	10.00000	0.75000	0.00950	0.00470
12.00000	2.00000	0.00000	0.73170	1.06190
12.00000	2.00000	0.05000	0.62930	0.85790
12.00000	2.00000	0.10000	0.58390	0.69430
12.00000	2.00000	0.15000	0.50320	0.56150
12.00000	2.00000	0.20000	0.43400	0.45590
12.00000	2.00000	0.25000	0.35050	0.37050
12.00000	2.00000	0.30000	0.30440	0.30110
12.00000	2.00000	0.35000	0.26460	0.24510
12.00000	2.00000	0.40000	0.23070	0.19980
12.00000	2.00000	0.45000	0.20150	0.16300
12.00000	2.00000	0.50000	0.17620	0.13310
12.00000	2.00000	0.55000	0.15420	0.10890
12.00000	2.00000	0.60000	0.13530	0.08910
12.00000	2.00000	0.65000	0.11900	0.07300
12.00000	2.00000	0.70000	0.10470	0.05980
12.00000	2.00000	0.75000	0.09420	0.04900
12.00000	3.00000	0.00000	0.36300	0.64920
12.00000	3.00000	0.05000	0.31460	0.52650
12.00000	3.00000	0.10000	0.27340	0.42910
12.00000	3.00000	0.15000	0.23790	0.34980
12.00000	3.00000	0.20000	0.20760	0.28520
12.00000	3.00000	0.25000	0.18120	0.23270
12.00000	3.00000	0.30000	0.15860	0.19040
12.00000	3.00000	0.35000	0.13910	0.15590
12.00000	3.00000	0.40000	0.12200	0.12780
12.00000	3.00000	0.45000	0.10730	0.10480
12.00000	3.00000	0.50000	0.09440	0.08620
12.00000	3.00000	0.55000	0.08320	0.07080
12.00000	3.00000	0.60000	0.07350	0.05830
12.00000	3.00000	0.65000	0.06640	0.04790
12.00000	3.00000	0.70000	0.05750	0.03950
12.00000	3.00000	0.75000	0.05100	0.03260
12.00000	4.00000	0.00000	0.21630	0.42910
12.00000	4.00000	0.05000	0.18870	0.34860
12.00000	4.00000	0.10000	0.16510	0.28450
12.00000	4.00000	0.15000	0.14460	0.23270
12.00000	4.00000	0.20000	0.12680	0.19040
12.00000	4.00000	0.25000	0.11140	0.15590
12.00000	4.00000	0.30000	0.09800	0.12790
12.00000	4.00000	0.35000	0.08630	0.10480
12.00000	4.00000	0.40000	0.07620	0.08620
12.00000	4.00000	0.45000	0.06730	0.07100
12.00000	4.00000	0.50000	0.05960	0.05840
12.00000	4.00000	0.55000	0.05400	0.04820
12.00000	4.00000	0.60000	0.04680	0.03970
12.00000	4.00000	0.65000	0.04160	0.03280
12.00000	4.00000	0.70000	0.03700	0.02720
12.00000	4.00000	0.75000	0.03300	0.02240
12.00000	5.00000	0.00000	0.14300	0.29830
12.00000	5.00000	0.05000	0.12540	0.24370
12.00000	5.00000	0.10000	0.11020	0.19910
12.00000	5.00000	0.15000	0.09690	0.16310
12.00000	5.00000	0.20000	0.08540	0.13370
12.00000	5.00000	0.25000	0.07540	0.10970
12.00000	5.00000	0.30000	0.06660	0.09010
12.00000	5.00000	0.35000	0.06040	0.07410
12.00000	5.00000	0.40000	0.05350	0.06110
12.00000	5.00000	0.45000	0.04750	0.05030
12.00000	5.00000	0.50000	0.04210	0.04150
12.00000	5.00000	0.55000	0.03670	0.03430
12.00000	5.00000	0.60000	0.03270	0.02830
12.00000	5.00000	0.65000	0.02910	0.02350
12.00000	5.00000	0.70000	0.02600	0.01940
12.00000	5.00000	0.75000	0.02320	0.01610
12.00000	6.00000	0.00000	0.10110	0.21770
12.00000	6.00000	0.05000	0.08910	0.17770
12.00000	6.00000	0.10000	0.07860	0.14530
12.00000	6.00000	0.15000	0.07120	0.11920
12.00000	6.00000	0.20000	0.06300	0.09790
12.00000	6.00000	0.25000	0.05580	0.08030
12.00000	6.00000	0.30000	0.04940	0.06610
12.00000	6.00000	0.35000	0.04390	0.05460
12.00000	6.00000	0.40000	0.03900	0.04490
12.00000	6.00000	0.45000	0.03470	0.03710
12.00000	6.00000	0.50000	0.03030	0.03060
12.00000	6.00000	0.55000	0.02700	0.02530
12.00000	6.00000	0.60000	0.02410	0.02090
12.00000	6.00000	0.65000	0.02160	0.01730
12.00000	6.00000	0.70000	0.01930	0.01440
12.00000	6.00000	0.75000	0.01730	0.01190
12.00000	7.00000	0.00000	0.07690	0.16300
12.00000	7.00000	0.05000	0.06790	0.13360
12.00000	7.00000	0.10000	0.06010	0.10910
12.00000	7.00000	0.15000	0.05330	0.08960
12.00000	7.00000	0.20000	0.04730	0.07360
12.00000	7.00000	0.25000	0.04100	0.06040
12.00000	7.00000	0.30000	0.03650	0.04990
12.00000	7.00000	0.35000	0.03250	0.04110
12.00000	7.00000	0.40000	0.02900	0.03390
12.00000	7.00000	0.45000	0.02590	0.02800
12.00000	7.00000	0.50000	0.02320	0.02310
12.00000	7.00000	0.55000	0.02070	0.01920
12.00000	7.00000	0.60000	0.01860	0.01590
12.00000	7.00000	0.65000	0.01670	0.01320
12.00000	7.00000	0.70000	0.01500	0.01090
12.00000	7.00000	0.75000	0.01340	0.00910
12.00000	8.00000	0.00000	0.05760	0.12530
12.00000	8.00000	0.05000	0.05110	0.10230
12.00000	8.00000	0.10000	0.04540	0.08390
12.00000	8.00000	0.15000	0.04030	0.06900
12.00000	8.00000	0.20000	0.03590	0.05660
12.00000	8.00000	0.25000	0.03200	0.04660
12.00000	8.00000	0.30000	0.02860	0.03830
12.00000	8.00000	0.35000	0.02550	0.03170
12.00000	8.00000	0.40000	0.02280	0.02620
12.00000	8.00000	0.45000	0.02040	0.02160
12.00000	8.00000	0.50000	0.01830	0.01790
12.00000	8.00000	0.55000	0.01640	0.01480
12.00000	8.00000	0.60000	0.01480	0.01230
12.00000	8.00000	0.65000	0.01330	0.01020
12.00000	8.00000	0.70000	0.01190	0.00850
12.00000	8.00000	0.75000	0.01080	0.00700
12.00000	9.00000	0.00000	0.04550	0.09770
12.00000	9.00000	0.05000	0.04050	0.08000
12.00000	9.00000	0.10000	0.03600	0.06570
12.00000	9.00000	0.15000	0.03210	0.05370
12.00000	9.00000	0.20000	0.02870	0.04420
12.00000	9.00000	0.25000	0.02560	0.03640
12.00000	9.00000	0.30000	0.02290	0.03000
12.00000	9.00000	0.35000	0.02050	0.02480
12.00000	9.00000	0.40000	0.01840	0.02050
12.00000	9.00000	0.45000	0.01650	0.01690
12.00000	9.00000	0.50000	0.01480	0.01400
12.00000	9.00000	0.55000	0.01330	0.01170
12.00000	9.00000	0.60000	0.01200	0.00970
12.00000	9.00000	0.65000	0.01080	0.00800
12.00000	9.00000	0.70000	0.00980	0.00670
12.00000	9.00000	0.75000	0.00880	0.00550
12.00000	10.00000	0.00000	0.03680	0.07740
12.00000	10.00000	0.05000	0.03280	0.06350
12.00000	10.00000	0.10000	0.02930	0.05200
12.00000	10.00000	0.15000	0.02620	0.04270
12.00000	10.00000	0.20000	0.02340	0.03520
12.00000	10.00000	0.25000	0.02100	0.02890
12.00000	10.00000	0.30000	0.01880	0.02380
12.00000	10.00000	0.35000	0.01690	0.01970
12.00000	10.00000	0.40000	0.01510	0.01630
12.00000	10.00000	0.45000	0.01360	0.01350
12.00000	10.00000	0.50000	0.01230	0.01110
12.00000	10.00000	0.55000	0.01100	0.00930
12.00000	10.00000	0.60000	0.01000	0.00770
12.00000	10.00000	0.65000	0.00900	0.00640
12.00000	10.00000	0.70000	0.00810	0.00530
12.00000	10.00000	0.75000	0.00730	0.00440
13.00000	2.00000	0.00000	0.60380	0.80040
13.00000	2.00000	0.05000	0.51570	0.64350
13.00000	2.00000	0.10000	0.44150	0.51920
13.00000	2.00000	0.15000	0.52170	0.41900
13.00000	2.00000	0.20000	0.44420	0.33910
13.00000	2.00000	0.25000	0.25720	0.27430
13.00000	2.00000	0.30000	0.22260	0.22250
13.00000	2.00000	0.35000	0.20950	0.18060
13.00000	2.00000	0.40000	0.18160	0.14680
13.00000	2.00000	0.45000	0.15770	0.11930
13.00000	2.00000	0.50000	0.13720	0.09710
13.00000	2.00000	0.55000	0.11960	0.07900
13.00000	2.00000	0.60000	0.10440	0.06460
13.00000	2.00000	0.65000	0.09140	0.05270
13.00000	2.00000	0.70000	0.08000	0.04310
13.00000	2.00000	0.75000	0.07030	0.03520
13.00000	3.00000	0.00000	0.38090	0.51550
13.00000	3.00000	0.05000	0.23880	0.41830
13.00000	3.00000	0.10000	0.22340	0.33880
13.00000	3.00000	0.15000	0.19340	0.27570
13.00000	3.00000	0.20000	0.16770	0.22410
13.00000	3.00000	0.25000	0.14560	0.18290
13.00000	3.00000	0.30000	0.12670	0.14900
13.00000	3.00000	0.35000	0.11060	0.12160
13.00000	3.00000	0.40000	0.09660	0.09950
13.00000	3.00000	0.45000	0.08440	0.08140
13.00000	3.00000	0.50000	0.07390	0.06670
13.00000	3.00000	0.55000	0.06480	0.05470
13.00000	3.00000	0.60000	0.05690	0.04490
13.00000	3.00000	0.65000	0.05010	0.03680
13.00000	3.00000	0.70000	0.04420	0.03030
13.00000	3.00000	0.75000	0.03900	0.02490
13.00000	4.00000	0.00000	0.17960	0.35300
13.00000	4.00000	0.05000	0.15590	0.28810
13.00000	4.00000	0.10000	0.13550	0.23420
13.00000	4.00000	0.15000	0.11790	0.19120
13.00000	4.00000	0.20000	0.10280	0.15580
13.00000	4.00000	0.25000	0.08980	0.12750
13.00000	4.00000	0.30000	0.07860	0.10420
13.00000	4.00000	0.35000	0.06890	0.08550
13.00000	4.00000	0.40000	0.06050	0.07010
13.00000	4.00000	0.45000	0.05310	0.05760
13.00000	4.00000	0.50000	0.04680	0.04730
13.00000	4.00000	0.55000	0.04130	0.03890
13.00000	4.00000	0.60000	0.03650	0.03200
13.00000	4.00000	0.65000	0.03230	0.02640
13.00000	4.00000	0.70000	0.02860	0.02180
13.00000	4.00000	0.75000	0.02530	0.01800
13.00000	5.00000	0.00000	0.11900	0.25400
13.00000	5.00000	0.05000	0.10380	0.20690
13.00000	5.00000	0.10000	0.09070	0.16880
13.00000	5.00000	0.15000	0.07940	0.13790
13.00000	5.00000	0.20000	0.06960	0.11280
13.00000	5.00000	0.25000	0.06100	0.09240
13.00000	5.00000	0.30000	0.05370	0.07570
13.00000	5.00000	0.35000	0.04720	0.06220
13.00000	5.00000	0.40000	0.04170	0.05110
13.00000	5.00000	0.45000	0.03680	0.04200
13.00000	5.00000	0.50000	0.03250	0.03470
13.00000	5.00000	0.55000	0.02880	0.02860
13.00000	5.00000	0.60000	0.02550	0.02360
13.00000	5.00000	0.65000	0.02270	0.01940
13.00000	5.00000	0.70000	0.02020	0.01610
13.00000	5.00000	0.75000	0.01790	0.01330
13.00000	6.00000	0.00000	0.08450	0.18940
13.00000	6.00000	0.05000	0.07390	0.15450
13.00000	6.00000	0.10000	0.06490	0.12640
13.00000	6.00000	0.15000	0.05700	0.10340
13.00000	6.00000	0.20000	0.05020	0.08460
13.00000	6.00000	0.25000	0.04420	0.06930
13.00000	6.00000	0.30000	0.03900	0.05710
13.00000	6.00000	0.35000	0.03450	0.04680
13.00000	6.00000	0.40000	0.03050	0.03860
13.00000	6.00000	0.45000	0.02700	0.03180
13.00000	6.00000	0.50000	0.02400	0.02620
13.00000	6.00000	0.55000	0.02130	0.02160
13.00000	6.00000	0.60000	0.01900	0.01780
13.00000	6.00000	0.65000	0.01690	0.01480
13.00000	6.00000	0.70000	0.01510	0.01220
13.00000	6.00000	0.75000	0.01340	0.01010
13.00000	7.00000	0.00000	0.06280	0.14500
13.00000	7.00000	0.05000	0.05520	0.11850
13.00000	7.00000	0.10000	0.04860	0.09670
13.00000	7.00000	0.15000	0.04280	0.07930
13.00000	7.00000	0.20000	0.03780	0.06510
13.00000	7.00000	0.25000	0.03340	0.05340
13.00000	7.00000	0.30000	0.02960	0.04390
13.00000	7.00000	0.35000	0.02620	0.03620
13.00000	7.00000	0.40000	0.02330	0.02980
13.00000	7.00000	0.45000	0.02070	0.02460
13.00000	7.00000	0.50000	0.01840	0.02030
13.00000	7.00000	0.55000	0.01640	0.01670
13.00000	7.00000	0.60000	0.01460	0.01390
13.00000	7.00000	0.65000	0.01310	0.01140
13.00000	7.00000	0.70000	0.01170	0.00950
13.00000	7.00000	0.75000	0.01050	0.00790
13.00000	8.00000	0.00000	0.04830	0.11320
13.00000	8.00000	0.05000	0.04260	0.09250
13.00000	8.00000	0.10000	0.03770	0.07570
13.00000	8.00000	0.15000	0.03330	0.06210
13.00000	8.00000	0.20000	0.02950	0.05100
13.00000	8.00000	0.25000	0.02620	0.04190
13.00000	8.00000	0.30000	0.02320	0.03450
13.00000	8.00000	0.35000	0.02060	0.02840
13.00000	8.00000	0.40000	0.01840	0.02340
13.00000	8.00000	0.45000	0.01640	0.01930
13.00000	8.00000	0.50000	0.01460	0.01600
13.00000	8.00000	0.55000	0.01300	0.01320
13.00000	8.00000	0.60000	0.01170	0.01090
13.00000	8.00000	0.65000	0.01040	0.00910
13.00000	8.00000	0.70000	0.00940	0.00750
13.00000	8.00000	0.75000	0.00840	0.00620
13.00000	9.00000	0.00000	0.03830	0.10480
13.00000	9.00000	0.05000	0.03380	0.08540
13.00000	9.00000	0.10000	0.03000	0.06960
13.00000	9.00000	0.15000	0.02660	0.05690
13.00000	9.00000	0.20000	0.02360	0.04650
13.00000	9.00000	0.25000	0.02100	0.03810
13.00000	9.00000	0.30000	0.01870	0.03130
13.00000	9.00000	0.35000	0.01670	0.02570
13.00000	9.00000	0.40000	0.01490	0.02110
13.00000	9.00000	0.45000	0.01330	0.01730
13.00000	9.00000	0.50000	0.01190	0.01430
13.00000	9.00000	0.55000	0.01060	0.01180
13.00000	9.00000	0.60000	0.00950	0.00980
13.00000	9.00000	0.65000	0.00860	0.00800
13.00000	9.00000	0.70000	0.00770	0.00660
13.00000	9.00000	0.75000	0.00690	0.00550
13.00000	10.00000	0.00000	0.03100	0.07240
13.00000	10.00000	0.05000	0.02750	0.05910
13.00000	10.00000	0.10000	0.02440	0.04850
13.00000	10.00000	0.15000	0.02170	0.03980
13.00000	10.00000	0.20000	0.01930	0.03270
13.00000	10.00000	0.25000	0.01720	0.02700
13.00000	10.00000	0.30000	0.01540	0.02220
13.00000	10.00000	0.35000	0.01370	0.01840
13.00000	10.00000	0.40000	0.01230	0.01510
13.00000	10.00000	0.45000	0.01100	0.01250
13.00000	10.00000	0.50000	0.00980	0.01030
13.00000	10.00000	0.55000	0.00880	0.00860
13.00000	10.00000	0.60000	0.00790	0.00710
13.00000	10.00000	0.65000	0.00710	0.00590
13.00000	10.00000	0.70000	0.00640	0.00490
13.00000	10.00000	0.75000	0.00580	0.00410
14.00000	2.00000	0.00000	0.50620	0.60520
14.00000	2.00000	0.05000	0.42960	0.48620
14.00000	2.00000	0.10000	0.36570	0.39070
14.00000	2.00000	0.15000	0.31190	0.31470
14.00000	2.00000	0.20000	0.26660	0.25360
14.00000	2.00000	0.25000	0.22840	0.20480
14.00000	2.00000	0.30000	0.19620	0.16560
14.00000	2.00000	0.35000	0.16870	0.13400
14.00000	2.00000	0.40000	0.14560	0.10840
14.00000	2.00000	0.45000	0.12570	0.08800
14.00000	2.00000	0.50000	0.10890	0.07140
14.00000	2.00000	0.55000	0.09450	0.05800
14.00000	2.00000	0.60000	0.08210	0.04720
14.00000	2.00000	0.65000	0.07150	0.03840
14.00000	2.00000	0.70000	0.06230	0.03130
14.00000	2.00000	0.75000	0.05450	0.02550
14.00000	3.00000	0.00000	0.25260	0.40930
14.00000	3.00000	0.05000	0.21640	0.33040
14.00000	3.00000	0.10000	0.18580	0.26770
14.00000	3.00000	0.15000	0.15990	0.21680
14.00000	3.00000	0.20000	0.13790	0.17610
14.00000	3.00000	0.25000	0.11910	0.14310
14.00000	3.00000	0.30000	0.10310	0.11630
14.00000	3.00000	0.35000	0.08940	0.09480
14.00000	3.00000	0.40000	0.07770	0.07720
14.00000	3.00000	0.45000	0.06750	0.06320
14.00000	3.00000	0.50000	0.05890	0.05160
14.00000	3.00000	0.55000	0.05140	0.04220
14.00000	3.00000	0.60000	0.04500	0.03450
14.00000	3.00000	0.65000	0.03940	0.02830
14.00000	3.00000	0.70000	0.03460	0.02320
14.00000	3.00000	0.75000	0.03050	0.01900
14.00000	4.00000	0.00000	0.15130	0.29070
14.00000	4.00000	0.05000	0.13050	0.23610
14.00000	4.00000	0.10000	0.11280	0.19160
14.00000	4.00000	0.15000	0.09770	0.15600
14.00000	4.00000	0.20000	0.08480	0.12710
14.00000	4.00000	0.25000	0.07370	0.10370
14.00000	4.00000	0.30000	0.06410	0.08460
14.00000	4.00000	0.35000	0.05600	0.06910
14.00000	4.00000	0.40000	0.04880	0.05660
14.00000	4.00000	0.45000	0.04280	0.04630
14.00000	4.00000	0.50000	0.03750	0.03800
14.00000	4.00000	0.55000	0.03290	0.03120
14.00000	4.00000	0.60000	0.02890	0.02560
14.00000	4.00000	0.65000	0.02550	0.02100
14.00000	4.00000	0.70000	0.02850	0.01730
14.00000	4.00000	0.75000	0.02490	0.01430
14.00000	5.00000	0.00000	0.10050	0.21440
14.00000	5.00000	0.05000	0.08720	0.17450
14.00000	5.00000	0.10000	0.07570	0.14200
14.00000	5.00000	0.15000	0.06590	0.11600
14.00000	5.00000	0.20000	0.05750	0.09460
14.00000	5.00000	0.25000	0.05020	0.07730
14.00000	5.00000	0.30000	0.04390	0.06320
14.00000	5.00000	0.35000	0.03850	0.05180
14.00000	5.00000	0.40000	0.03380	0.04250
14.00000	5.00000	0.45000	0.02970	0.03490
14.00000	5.00000	0.50000	0.02610	0.02870
14.00000	5.00000	0.55000	0.02980	0.02360
14.00000	5.00000	0.60000	0.02610	0.01940
14.00000	5.00000	0.65000	0.02170	0.01600
14.00000	5.00000	0.70000	0.01910	0.01320
14.00000	5.00000	0.75000	0.01330	0.01090
14.00000	6.00000	0.00000	0.07150	0.16330
14.00000	6.00000	0.05000	0.06230	0.13300
14.00000	6.00000	0.10000	0.05430	0.10870
14.00000	6.00000	0.15000	0.04750	0.08870
14.00000	6.00000	0.20000	0.04160	0.07260
14.00000	6.00000	0.25000	0.03640	0.05930
14.00000	6.00000	0.30000	0.03200	0.04870
14.00000	6.00000	0.35000	0.03730	0.04000
14.00000	6.00000	0.40000	0.03270	0.03280
14.00000	6.00000	0.45000	0.02700	0.02700
14.00000	6.00000	0.50000	0.02370	0.02220
14.00000	6.00000	0.55000	0.01610	0.01830
14.00000	6.00000	0.60000	0.01430	0.01510
14.00000	6.00000	0.65000	0.01270	0.01250
14.00000	6.00000	0.70000	0.01190	0.01030
14.00000	6.00000	0.75000	0.01060	0.00850
14.00000	7.00000	0.00000	0.05320	0.12740
14.00000	7.00000	0.05000	0.04650	0.10380
14.00000	7.00000	0.10000	0.04080	0.08480
14.00000	7.00000	0.15000	0.04820	0.06930
14.00000	7.00000	0.20000	0.04210	0.05680
14.00000	7.00000	0.25000	0.03460	0.04660
14.00000	7.00000	0.30000	0.03040	0.03820
14.00000	7.00000	0.35000	0.02020	0.03140
14.00000	7.00000	0.40000	0.01780	0.02580
14.00000	7.00000	0.45000	0.01680	0.02130
14.00000	7.00000	0.50000	0.01490	0.01750
14.00000	7.00000	0.55000	0.01320	0.01450
14.00000	7.00000	0.60000	0.01170	0.01190
14.00000	7.00000	0.65000	0.01040	0.00990
14.00000	7.00000	0.70000	0.00930	0.00820
14.00000	7.00000	0.75000	0.00830	0.00680
14.00000	8.00000	0.00000	0.05200	0.10110
14.00000	8.00000	0.05000	0.04550	0.08250
14.00000	8.00000	0.10000	0.02970	0.06750
14.00000	8.00000	0.15000	0.02610	0.05520
14.00000	8.00000	0.20000	0.02450	0.04530
14.00000	8.00000	0.25000	0.02170	0.03720
14.00000	8.00000	0.30000	0.01910	0.03060
14.00000	8.00000	0.35000	0.01690	0.02510
14.00000	8.00000	0.40000	0.01500	0.02070
14.00000	8.00000	0.45000	0.01330	0.01700
14.00000	8.00000	0.50000	0.01180	0.01410
14.00000	8.00000	0.55000	0.01050	0.01160
14.00000	8.00000	0.60000	0.00940	0.00960
14.00000	8.00000	0.65000	0.00840	0.00790
14.00000	8.00000	0.70000	0.00750	0.00660
14.00000	8.00000	0.75000	0.00670	0.00540
14.00000	9.00000	0.00000	0.03260	0.08140
14.00000	9.00000	0.05000	0.02870	0.06640
14.00000	9.00000	0.10000	0.02530	0.05430
14.00000	9.00000	0.15000	0.02230	0.04450
14.00000	9.00000	0.20000	0.01980	0.03660
14.00000	9.00000	0.25000	0.01750	0.03010
14.00000	9.00000	0.30000	0.01550	0.02470
14.00000	9.00000	0.35000	0.01380	0.02030
14.00000	9.00000	0.40000	0.01230	0.01680
14.00000	9.00000	0.45000	0.01080	0.01380
14.00000	9.00000	0.50000	0.00960	0.01140
14.00000	9.00000	0.55000	0.00860	0.00940
14.00000	9.00000	0.60000	0.00770	0.00780
14.00000	9.00000	0.65000	0.00690	0.00650
14.00000	9.00000	0.70000	0.00610	0.00540
14.00000	9.00000	0.75000	0.00550	0.00440
14.00000	10.00000	0.00000	0.02650	0.06640
14.00000	10.00000	0.05000	0.02330	0.05430
14.00000	10.00000	0.10000	0.02060	0.04450
14.00000	10.00000	0.15000	0.01820	0.03650
14.00000	10.00000	0.20000	0.01610	0.03000
14.00000	10.00000	0.25000	0.01430	0.02460
14.00000	10.00000	0.30000	0.01270	0.02030
14.00000	10.00000	0.35000	0.01130	0.01670
14.00000	10.00000	0.40000	0.01010	0.01380
14.00000	10.00000	0.45000	0.00900	0.01140
14.00000	10.00000	0.50000	0.00800	0.00940
14.00000	10.00000	0.55000	0.00710	0.00780
14.00000	10.00000	0.60000	0.00640	0.00640
14.00000	10.00000	0.65000	0.00570	0.00530
14.00000	10.00000	0.70000	0.00510	0.00440
14.00000	10.00000	0.75000	0.00460	0.00370
15.00000	2.00000	0.00000	0.42990	0.46250
15.00000	2.00000	0.05000	0.36300	0.37030
15.00000	2.00000	0.10000	0.30710	0.29670
15.00000	2.00000	0.15000	0.26060	0.23820
15.00000	2.00000	0.20000	0.22150	0.19140
15.00000	2.00000	0.25000	0.18870	0.15410
15.00000	2.00000	0.30000	0.16130	0.12420
15.00000	2.00000	0.35000	0.13810	0.10020
15.00000	2.00000	0.40000	0.11850	0.08090
15.00000	2.00000	0.45000	0.10190	0.06550
15.00000	2.00000	0.50000	0.08780	0.05290
15.00000	2.00000	0.55000	0.07580	0.04290
15.00000	2.00000	0.60000	0.06550	0.03480
15.00000	2.00000	0.65000	0.05690	0.02830
15.00000	2.00000	0.70000	0.04960	0.02300
15.00000	2.00000	0.75000	0.04310	0.01870
15.00000	3.00000	0.00000	0.21520	0.32470
15.00000	3.00000	0.05000	0.18330	0.26150
15.00000	3.00000	0.10000	0.15660	0.21100
15.00000	3.00000	0.15000	0.13400	0.17090
15.00000	3.00000	0.20000	0.11510	0.13830
15.00000	3.00000	0.25000	0.09890	0.11200
15.00000	3.00000	0.30000	0.08510	0.09100
15.00000	3.00000	0.35000	0.07350	0.07390
15.00000	3.00000	0.40000	0.06360	0.06010
15.00000	3.00000	0.45000	0.05500	0.04900
15.00000	3.00000	0.50000	0.04770	0.03990
15.00000	3.00000	0.55000	0.04150	0.03250
15.00000	3.00000	0.60000	0.03640	0.02660
15.00000	3.00000	0.65000	0.03170	0.02170
15.00000	3.00000	0.70000	0.02770	0.01780
15.00000	3.00000	0.75000	0.02420	0.01450
15.00000	4.00000	0.00000	0.12900	0.23760
15.00000	4.00000	0.05000	0.11080	0.19240
15.00000	4.00000	0.10000	0.09530	0.15600
15.00000	4.00000	0.15000	0.08210	0.12670
15.00000	4.00000	0.20000	0.07090	0.10300
15.00000	4.00000	0.25000	0.06130	0.08390
15.00000	4.00000	0.30000	0.05310	0.06840
15.00000	4.00000	0.35000	0.04610	0.05570
15.00000	4.00000	0.40000	0.04010	0.04550
15.00000	4.00000	0.45000	0.03490	0.03720
15.00000	4.00000	0.50000	0.03060	0.03040
15.00000	4.00000	0.55000	0.02680	0.02750
15.00000	4.00000	0.60000	0.02340	0.02040
15.00000	4.00000	0.65000	0.02050	0.01680
15.00000	4.00000	0.70000	0.01800	0.01370
15.00000	4.00000	0.75000	0.01580	0.01130
15.00000	5.00000	0.00000	0.08590	0.17960
15.00000	5.00000	0.05000	0.07420	0.14610
15.00000	5.00000	0.10000	0.06410	0.11870
15.00000	5.00000	0.15000	0.05550	0.09670
15.00000	5.00000	0.20000	0.04810	0.07880
15.00000	5.00000	0.25000	0.04180	0.06430
15.00000	5.00000	0.30000	0.03640	0.05250
15.00000	5.00000	0.35000	0.03200	0.04300
15.00000	5.00000	0.40000	0.02790	0.03510
15.00000	5.00000	0.45000	0.02440	0.02880
15.00000	5.00000	0.50000	0.02140	0.02360
15.00000	5.00000	0.55000	0.01880	0.01940
15.00000	5.00000	0.60000	0.01650	0.01590
15.00000	5.00000	0.65000	0.01450	0.01310
15.00000	5.00000	0.70000	0.01280	0.01080
15.00000	5.00000	0.75000	0.01130	0.00890
15.00000	6.00000	0.00000	0.06110	0.13980
15.00000	6.00000	0.05000	0.05290	0.11370
15.00000	6.00000	0.10000	0.04600	0.09260
15.00000	6.00000	0.15000	0.04000	0.07540
15.00000	6.00000	0.20000	0.03510	0.06160
15.00000	6.00000	0.25000	0.03060	0.05040
15.00000	6.00000	0.30000	0.02670	0.04120
15.00000	6.00000	0.35000	0.02340	0.03370
15.00000	6.00000	0.40000	0.02050	0.02770
15.00000	6.00000	0.45000	0.01800	0.02270
15.00000	6.00000	0.50000	0.01590	0.01870
15.00000	6.00000	0.55000	0.01400	0.01950
15.00000	6.00000	0.60000	0.01230	0.01260
15.00000	6.00000	0.65000	0.01080	0.01040
15.00000	6.00000	0.70000	0.00960	0.00860
15.00000	6.00000	0.75000	0.00850	0.00710
15.00000	7.00000	0.00000	0.04560	0.11080
15.00000	7.00000	0.05000	0.03970	0.09020
15.00000	7.00000	0.10000	0.03480	0.07370
15.00000	7.00000	0.15000	0.03040	0.06010
15.00000	7.00000	0.20000	0.02660	0.04910
15.00000	7.00000	0.25000	0.02330	0.04030
15.00000	7.00000	0.30000	0.02040	0.03300
15.00000	7.00000	0.35000	0.01790	0.02710
15.00000	7.00000	0.40000	0.01580	0.02220
15.00000	7.00000	0.45000	0.01390	0.01830
15.00000	7.00000	0.50000	0.01220	0.01500
15.00000	7.00000	0.55000	0.01080	0.01240
15.00000	7.00000	0.60000	0.00950	0.01370
15.00000	7.00000	0.65000	0.00850	0.00840
15.00000	7.00000	0.70000	0.00750	0.00690
15.00000	7.00000	0.75000	0.00670	0.00570
15.00000	8.00000	0.00000	0.03540	0.08930
15.00000	8.00000	0.05000	0.03090	0.07290
15.00000	8.00000	0.10000	0.02710	0.05940
15.00000	8.00000	0.15000	0.02370	0.04860
15.00000	8.00000	0.20000	0.02080	0.03980
15.00000	8.00000	0.25000	0.01830	0.03260
15.00000	8.00000	0.30000	0.01610	0.02680
15.00000	8.00000	0.35000	0.01410	0.02200
15.00000	8.00000	0.40000	0.01250	0.01810
15.00000	8.00000	0.45000	0.01100	0.01490
15.00000	8.00000	0.50000	0.00970	0.01230
15.00000	8.00000	0.55000	0.00860	0.01010
15.00000	8.00000	0.60000	0.00760	0.00830
15.00000	8.00000	0.65000	0.00680	0.00690
15.00000	8.00000	0.70000	0.00600	0.00570
15.00000	8.00000	0.75000	0.00540	0.00470
15.00000	9.00000	0.00000	0.02800	0.07280
15.00000	9.00000	0.05000	0.02450	0.05950
15.00000	9.00000	0.10000	0.02150	0.04870
15.00000	9.00000	0.15000	0.01890	0.03980
15.00000	9.00000	0.20000	0.01660	0.03260
15.00000	9.00000	0.25000	0.01460	0.02680
15.00000	9.00000	0.30000	0.01290	0.02200
15.00000	9.00000	0.35000	0.01140	0.01810
15.00000	9.00000	0.40000	0.01010	0.01490
15.00000	9.00000	0.45000	0.00890	0.01230
15.00000	9.00000	0.50000	0.00790	0.01010
15.00000	9.00000	0.55000	0.00700	0.00840
15.00000	9.00000	0.60000	0.00630	0.00690
15.00000	9.00000	0.65000	0.00560	0.00570
15.00000	9.00000	0.70000	0.00500	0.00470
15.00000	9.00000	0.75000	0.00440	0.00390
15.00000	10.00000	0.00000	0.02280	0.06030
15.00000	10.00000	0.05000	0.02000	0.04920
15.00000	10.00000	0.10000	0.01760	0.04030
15.00000	10.00000	0.15000	0.01550	0.03300
15.00000	10.00000	0.20000	0.01360	0.02700
15.00000	10.00000	0.25000	0.01200	0.02230
15.00000	10.00000	0.30000	0.01060	0.01830
15.00000	10.00000	0.35000	0.00940	0.01500
15.00000	10.00000	0.40000	0.00840	0.01240
15.00000	10.00000	0.45000	0.00740	0.01020
15.00000	10.00000	0.50000	0.00660	0.00840
15.00000	10.00000	0.55000	0.00590	0.00700
15.00000	10.00000	0.60000	0.00520	0.00580
15.00000	10.00000	0.65000	0.00470	0.00480
15.00000	10.00000	0.70000	0.00420	0.00390
15.00000	10.00000	0.75000	0.00370	0.00330
